CSI_Accuracy,CSI_Detection,Audio_Accuracy,Audio_Detection,Deepfusion_Detection,Deepfusion_Real
0.9828,1,0.808,1,1,1
0.7056,0,0.9021,1,1,1
0.8614,1,0.8429,1,1,1
0.982,1,0.739,0,1,1
0.9935,1,0.7453,1,1,1
0.7096,1,0.7718,1,1,1
0.8623,1,0.8465,0,1,1
0.7594,0,0.7693,1,1,1
0.7899,1,0.9656,1,1,1
0.7442,1,0.8533,1,1,1
0.7656,1,0.7796,1,1,1
0.9299,1,0.7943,1,1,1
0.9212,1,0.8059,1,1,1
0.7936,1,0.9183,1,1,1
0.6884,1,0.6502,1,1,1
0.6994,1,0.6598,1,1,1
0.6142,0,0.6477,1,1,1
0.6139,1,0.642,1,1,1
0.6562,1,0.6516,1,1,1
0.601,1,0.6692,1,1,1
0.6925,1,0.6448,1,1,1
0.606,1,0.671,1,1,1
0.6081,1,0.6345,1,1,1
0.6547,1,0.638,1,1,1
0.6469,1,0.6301,1,1,1
0.6252,1,0.6494,1,1,1
0.657,1,0.6662,1,1,1
0.5861,1,0.5122,0,1,1
0.5451,0,0.5121,1,1,1
0.5756,1,0.5302,1,1,1
0.3696,1,0.1817,1,1,1
0.1985,0,0.437,1,1,1
0.2165,0,0.3653,1,1,1
0.6912,0,0.1589,1,0,1
0.2599,0,0.2497,1,0,1
0.4953,1,0.7293,0,0,1
0.7604,0,0.2987,1,0,1
0.6489,1,0.651,0,0,1
0.8978,0,0.1897,1,0,1
0.2773,1,0.7227,0,0,1
0.551,0,0.943,1,1,0
0.9086,1,0.4154,0,1,0
0.1253,0,0.1279,1,1,0
0.5976,0,0.6775,1,1,0
0.7624,1,0.7569,0,1,0
0.8814,1,0.3056,0,1,0
0.1673,1,0.1485,1,1,0
0.7543,1,0.668,0,0,0
0.645,0,0.6657,0,0,0
0.7333,0,0.8638,0,0,0